{
  "extends": [
    "tslint:recommended",
    "tslint-react",
    "tslint-config-prettier"
  ],
  "linterOptions": {
    "exclude": [
      "config/**/*.js",
      "node_modules/**/*.ts"
    ]
  },
  "rules": {
    "no-console": [
      false
    ],
    "jsx-no-lambda": [
      false
    ],
    "no-empty": [
      false
    ]
  }
}
